Week3/Ripple_Carry_Adder/rca_test.vcd
$date
	Fri Aug 25 20:06:26 2023
$end
$version
	Icarus Verilog
$end
$timescale
	100ps
$end
$scope module tb $end
$var wire 4 ! o [3:0] $end
$var wire 1 " cout $end
$var reg 1 # cin $end
$var reg 1 $ clk $end
$var reg 4 % i0 [3:0] $end
$var reg 4 & i1 [3:0] $end
$var reg 1 ' reset $end
$var integer 32 ( i [31:0] $end
$scope module u0 $end
$var wire 4 ) a [3:0] $end
$var wire 4 * b [3:0] $end
$var wire 1 # cin $end
$var wire 4 + sum [3:0] $end
$var wire 1 , cout2 $end
$var wire 1 - cout1 $end
$var wire 1 . cout0 $end
$var wire 1 " cout $end
$scope module u0 $end
$var wire 1 / a $end
$var wire 1 0 b $end
$var wire 1 # cin $end
$var wire 5 1 t [4:0] $end
$var wire 1 2 sum $end
$var wire 1 . cout $end
$scope module a0 $end
$var wire 1 / i0 $end
$var wire 1 0 i1 $end
$var wire 1 3 o2 $end
$upscope $end
$scope module a1 $end
$var wire 1 / i0 $end
$var wire 1 # i1 $end
$var wire 1 4 o2 $end
$upscope $end
$scope module a2 $end
$var wire 1 0 i0 $end
$var wire 1 # i1 $end
$var wire 1 5 o2 $end
$upscope $end
$scope module o0 $end
$var wire 1 6 i0 $end
$var wire 1 7 i1 $end
$var wire 1 8 o3 $end
$upscope $end
$scope module o1 $end
$var wire 1 9 i0 $end
$var wire 1 : i1 $end
$var wire 1 . o3 $end
$upscope $end
$scope module x0 $end
$var wire 1 / i0 $end
$var wire 1 0 i1 $end
$var wire 1 ; o4 $end
$upscope $end
$scope module x1 $end
$var wire 1 < i0 $end
$var wire 1 # i1 $end
$var wire 1 2 o4 $end
$upscope $end
$upscope $end
$scope module u1 $end
$var wire 1 = a $end
$var wire 1 > b $end
$var wire 1 . cin $end
$var wire 5 ? t [4:0] $end
$var wire 1 @ sum $end
$var wire 1 - cout $end
$scope module a0 $end
$var wire 1 = i0 $end
$var wire 1 > i1 $end
$var wire 1 A o2 $end
$upscope $end
$scope module a1 $end
$var wire 1 = i0 $end
$var wire 1 . i1 $end
$var wire 1 B o2 $end
$upscope $end
$scope module a2 $end
$var wire 1 > i0 $end
$var wire 1 . i1 $end
$var wire 1 C o2 $end
$upscope $end
$scope module o0 $end
$var wire 1 D i0 $end
$var wire 1 E i1 $end
$var wire 1 F o3 $end
$upscope $end
$scope module o1 $end
$var wire 1 G i0 $end
$var wire 1 H i1 $end
$var wire 1 - o3 $end
$upscope $end
$scope module x0 $end
$var wire 1 = i0 $end
$var wire 1 > i1 $end
$var wire 1 I o4 $end
$upscope $end
$scope module x1 $end
$var wire 1 J i0 $end
$var wire 1 . i1 $end
$var wire 1 @ o4 $end
$upscope $end
$upscope $end
$scope module u2 $end
$var wire 1 K a $end
$var wire 1 L b $end
$var wire 1 - cin $end
$var wire 5 M t [4:0] $end
$var wire 1 N sum $end
$var wire 1 , cout $end
$scope module a0 $end
$var wire 1 K i0 $end
$var wire 1 L i1 $end
$var wire 1 O o2 $end
$upscope $end
$scope module a1 $end
$var wire 1 K i0 $end
$var wire 1 - i1 $end
$var wire 1 P o2 $end
$upscope $end
$scope module a2 $end
$var wire 1 L i0 $end
$var wire 1 - i1 $end
$var wire 1 Q o2 $end
$upscope $end
$scope module o0 $end
$var wire 1 R i0 $end
$var wire 1 S i1 $end
$var wire 1 T o3 $end
$upscope $end
$scope module o1 $end
$var wire 1 U i0 $end
$var wire 1 V i1 $end
$var wire 1 , o3 $end
$upscope $end
$scope module x0 $end
$var wire 1 K i0 $end
$var wire 1 L i1 $end
$var wire 1 W o4 $end
$upscope $end
$scope module x1 $end
$var wire 1 X i0 $end
$var wire 1 - i1 $end
$var wire 1 N o4 $end
$upscope $end
$upscope $end
$scope module u3 $end
$var wire 1 Y a $end
$var wire 1 Z b $end
$var wire 1 , cin $end
$var wire 5 [ t [4:0] $end
$var wire 1 \ sum $end
$var wire 1 " cout $end
$scope module a0 $end
$var wire 1 Y i0 $end
$var wire 1 Z i1 $end
$var wire 1 ] o2 $end
$upscope $end
$scope module a1 $end
$var wire 1 Y i0 $end
$var wire 1 , i1 $end
$var wire 1 ^ o2 $end
$upscope $end
$scope module a2 $end
$var wire 1 Z i0 $end
$var wire 1 , i1 $end
$var wire 1 _ o2 $end
$upscope $end
$scope module o0 $end
$var wire 1 ` i0 $end
$var wire 1 a i1 $end
$var wire 1 b o3 $end
$upscope $end
$scope module o1 $end
$var wire 1 c i0 $end
$var wire 1 d i1 $end
$var wire 1 " o3 $end
$upscope $end
$scope module x0 $end
$var wire 1 Y i0 $end
$var wire 1 Z i1 $end
$var wire 1 e o4 $end
$upscope $end
$scope module x1 $end
$var wire 1 f i0 $end
$var wire 1 , i1 $end
$var wire 1 \ o4 $end
$upscope $end
$upscope $end
$upscope $end
$upscope $end
$enddefinitions $end
$comment Show the parameter values. $end
$dumpall
$end
#0
$dumpvars
0f
0e
0d
0c
0b
0a
0`
0_
0^
0]
0\
b0 [
0Z
0Y
0X
0W
0V
0U
0T
0S
0R
0Q
0P
0O
0N
b0 M
0L
0K
0J
0I
0H
0G
0F
0E
0D
0C
0B
0A
0@
b0 ?
0>
0=
0<
0;
0:
09
08
07
06
05
04
03
02
b0 1
00
0/
0.
0-
0,
b0 +
b0 *
b0 )
b0 (
1'
b0 &
b0 %
0$
0#
0"
b0 !
$end
#50
1$
#100
0$
#125
0'
#150
1$
#160
b1 (
#200
0$
#250
1$
#260
b1 !
b1 +
12
b10 (
1#
#300
0$
#350
1$
#360
1@
1.
1:
18
16
b10010 1
13
1/
10
b10 !
b10 +
02
b11 (
b1 %
b1 )
b1 &
b1 *
0#
#400
0$
#450
1$
#460
17
19
14
b11110 1
15
b11 !
b11 +
12
b100 (
1#
#500
0$
#550
1$
#560
0@
0.
0:
1H
1N
08
1F
1-
0E
06
1D
0G
0B
03
1A
b10010 ?
0C
07
09
0/
1=
00
1>
04
b0 1
05
b100 !
b100 +
02
b101 (
b10 %
b10 )
b10 &
b10 *
0#
#600
0$
#650
1$
#660
1"
1d
b101 !
b101 +
12
1b
1<
1`
b1 1
1;
b10010 [
1]
1Y
10
1Z
b110 (
b1010 %
b1010 )
b1011 &
b1011 *
#700
0$
#750
1$
#760
1E
1G
1B
b11110 ?
1C
1@
1.
19
b1001 1
15
b110 !
b110 +
02
b111 (
1#
#800
0$
#850
1$
#860
0N
0-
1a
1c
0H
1V
1^
b11110 [
1_
1\
0F
1T
1,
0@
0E
0S
0D
0G
1R
0U
0.
0B
0P
0A
b0 ?
0C
1O
b10010 M
0Q
09
0=
1K
0>
1L
b1 1
05
b1001 !
b1001 +
12
b1000 (
b1100 %
b1100 )
b1101 &
b1101 *
0#
#900
0$
#950
1$
#960
1S
1U
1P
b11110 M
1Q
b1101 !
b1101 +
1N
1-
1H
1F
1D
b10010 ?
1A
1/
1=
00
1>
b1001 (
b1111 %
b1111 )
b1110 &
b1110 *
#1000
0$
#1050
1$
#1060
1E
1G
1B
b11110 ?
1C
1@
1.
1:
18
17
b10101 1
14
b1110 !
b1110 +
02
b1010 (
1#
